…
Task 3:
=======

### How is life expectancy changing over time on different continents?

``` r
lifetrend <- gapminder %>% 
  group_by(continent, year) %>% 
  summarize(mean.lifeexp = mean(lifeExp)) %>%
  filter(year > 1950 & year < 2000) %>% 
  as_tibble()
lifetrend
```

    ## # A tibble: 50 x 3
    ##    continent  year mean.lifeexp
    ##    <fct>     <int>        <dbl>
    ##  1 Africa     1952         39.1
    ##  2 Africa     1957         41.3
    ##  3 Africa     1962         43.3
    ##  4 Africa     1967         45.3
    ##  5 Africa     1972         47.5
    ##  6 Africa     1977         49.6
    ##  7 Africa     1982         51.6
    ##  8 Africa     1987         53.3
    ##  9 Africa     1992         53.6
    ## 10 Africa     1997         53.6
    ## # … with 40 more rows
…
